CABA(int)/trace.vcd
$date
     Mar 30, 2020       11:53:47
$end

$version
 SystemC 2.3.3-Accellera --- Mar 27 2020 17:30:03
$end

$timescale
     1 ns
$end

$scope module SystemC $end
$var wire    1  aaaaa  clk       $end
$var wire    1  aaaab  data_valid_input       $end
$var wire    1  aaaac  s_data_valid_output       $end
$var wire    1  aaaad  data_req_input       $end
$var wire    1  aaaae  data_req_output       $end
$upscope $end
$enddefinitions  $end

$comment
All initial values are dumped below at time 0 sec = 0 timescale units.
$end

$dumpvars
0aaaaa
0aaaab
0aaaac
0aaaad
0aaaae
$end

#10
1aaaaa
1aaaab
1aaaad
1aaaae

#15
0aaaaa

#20
1aaaaa
0aaaab
0aaaad

#25
0aaaaa

#30
1aaaaa
1aaaab
1aaaad

#35
0aaaaa

#40
1aaaaa
0aaaab
0aaaad

#45
0aaaaa

#50
1aaaaa
1aaaab
1aaaad

#55
0aaaaa

#60
1aaaaa
0aaaab
0aaaad

#65
0aaaaa

#70
1aaaaa
1aaaab
1aaaad

#75
0aaaaa

#80
1aaaaa
0aaaab
0aaaad

#85
0aaaaa

#90
1aaaaa
1aaaab
1aaaad

#95
0aaaaa

#100
1aaaaa
0aaaab
0aaaad

#105
0aaaaa

#110
1aaaaa
1aaaab
1aaaad

#115
0aaaaa

#120
1aaaaa
0aaaab
0aaaad

#125
0aaaaa

#130
1aaaaa
1aaaab
1aaaad

#135
0aaaaa

#140
1aaaaa
0aaaab
0aaaad

#145
0aaaaa

#150
1aaaaa
1aaaab
1aaaad

