trace.vcd
$date
     Feb 18, 2020       10:41:15
$end

$version
 SystemC 2.3.3-Accellera --- Jul  2 2019 15:18:47
$end

$timescale
     1 ns
$end

$scope module SystemC $end
$scope module top $end
$var real    1  aaaaa  fifo_0_0       $end
$var real    1  aaaab  fifo_0_1       $end
$var real    1  aaaac  fifo_0_2       $end
$var real    1  aaaad  fifo_0_3       $end
$var real    1  aaaae  fifo_0_4       $end
$var real    1  aaaaf  fifo_0_5       $end
$var real    1  aaaag  fifo_0_6       $end
$var real    1  aaaah  fifo_0_7       $end
$var real    1  aaaai  fifo_0_8       $end
$var real    1  aaaaj  fifo_0_9       $end
$var real    1  aaaak  fifo_0_10       $end
$var real    1  aaaal  fifo_0_11       $end
$var real    1  aaaam  fifo_0_12       $end
$var real    1  aaaan  fifo_0_13       $end
$var real    1  aaaao  fifo_0_14       $end
$var real    1  aaaap  fifo_0_15       $end
$var real    1  aaaaq  fifo_1_0       $end
$var real    1  aaaar  fifo_1_1       $end
$var real    1  aaaas  fifo_1_2       $end
$var real    1  aaaat  fifo_1_3       $end
$var real    1  aaaau  fifo_1_4       $end
$var real    1  aaaav  fifo_1_5       $end
$var real    1  aaaaw  fifo_1_6       $end
$var real    1  aaaax  fifo_1_7       $end
$var real    1  aaaay  fifo_1_8       $end
$var real    1  aaaaz  fifo_1_9       $end
$var real    1  aaaba  fifo_1_10       $end
$var real    1  aaabb  fifo_1_11       $end
$var real    1  aaabc  fifo_1_12       $end
$var real    1  aaabd  fifo_1_13       $end
$var real    1  aaabe  fifo_1_14       $end
$var real    1  aaabf  fifo_1_15       $end
$upscope $end
$upscope $end
$enddefinitions  $end

$comment
All initial values are dumped below at time 0 sec = 0 timescale units.
$end

$dumpvars
r2011 aaaaa
r2011 aaaab
r6.594295324105558e+22 aaaac
r7.555081327053433e+31 aaaad
r3.559244355763391e-17 aaaae
r1.832023514993055e+25 aaaaf
r6.593495034451775e+22 aaaag
r7.555081327053433e+31 aaaah
r1.163049618668772e+33 aaaai
r1.069251965022726e-38 aaaaj
r3.459590036322679e-12 aaaak
r0 aaaal
r0 aaaam
r0 aaaan
r0 aaaao
r0 aaaap
r0 aaaaq
r0 aaaar
r6.594295324105558e+22 aaaas
r7.555081327053433e+31 aaaat
r3.559244355763391e-17 aaaau
r1.832023514993055e+25 aaaav
r6.593495034451775e+22 aaaaw
r7.555081327053433e+31 aaaax
r0 aaaay
r0 aaaaz
r0 aaaba
r0 aaabb
r0 aaabc
r0 aaabd
r0 aaabe
r0 aaabf
$end

#2
r0 aaaaa
r0 aaaab
r2011 aaaac
r2011 aaaad

#4
r0 aaaac
r0 aaaad
r2011 aaaae
r2011 aaaaf

#6
r0 aaaae
r0 aaaaf
r2011 aaaag
r2011 aaaah

#8
r0 aaaag
r0 aaaah
r2011 aaaai
r2011 aaaaj

#10
r0 aaaai
r0 aaaaj
r2011 aaaak
r2011 aaaal

#12
r0 aaaak
r0 aaaal
r2011 aaaam
r2011 aaaan

#14
r0 aaaam
r0 aaaan
r2011 aaaao
r2011 aaaap

#16
r1 aaaaa
r1 aaaab
r0 aaaao
r0 aaaap

#18
r2011 aaaaq
r2011 aaaar
r2011 aaaas
r2011 aaaat
r2011 aaaau
r2011 aaaav
r2011 aaaaw
r2011 aaaax
r2011 aaaay
r2011 aaaaz
r2011 aaaba
r2011 aaabb
r2011 aaabc
r2011 aaabd
r2011 aaabe
r2011 aaabf

#20
r0 aaaaa
r0 aaaab
r0 aaaaq
r0 aaaar

#22
r0 aaaas
r0 aaaat

#24
r0 aaaau
r0 aaaav

#26
r0 aaaaw
r0 aaaax

#28
r0 aaaay
r0 aaaaz

#30
r0 aaaba
r0 aaabb

#32
r456 aaaab
r0 aaabc
r0 aaabd

#34
r120 aaaac
r234 aaaad
r1 aaaaq
r1 aaaar
r0 aaabe
r0 aaabf

#36
r234 aaaae
r120 aaaaf
r0 aaaaq
r0 aaaar

#38
r0 aaaab
r0 aaaac
r0 aaaad
r0 aaaae
r0 aaaaf
r120 aaaag

#40
r0 aaaag
r-120 aaaaj

#42
r0 aaaaj
r-120 aaaak
r-234 aaaal

#44
r0 aaaak
r0 aaaal
r-234 aaaam
r-456 aaaan

#46
r0 aaaam
r0 aaaan
r-120 aaaao
r-768 aaaap

#48
r123 aaaaa
r29 aaaab
r0 aaaao
r0 aaaap

#50
r34 aaaac
r34 aaaad
r456 aaaar
r120 aaaas
r234 aaaat
r234 aaaau
r120 aaaav
r120 aaaaw
r-120 aaaaz
r-120 aaaba
r-234 aaabb
r-234 aaabc
r-456 aaabd

#52
r-23 aaaae
r85 aaaaf
r0 aaaar
r-120 aaabe
r-768 aaabf

#54
r0 aaaaa
r0 aaaab
r0 aaaac
r0 aaaad
r0 aaaae
r0 aaaaf
r12 aaaag
r206 aaaah
r0 aaaas
r0 aaaat

#56
r0 aaaag
r0 aaaah
r45 aaaai
r336 aaaaj
r0 aaaau
r0 aaaav

#58
r0 aaaai
r0 aaaaj
r593 aaaal
r0 aaaaw

#60
r0 aaaal
r67 aaaam
r823 aaaan
r0 aaaaz

#62
r0 aaaam
r0 aaaan
r134 aaaao
r422 aaaap
r0 aaaba
r0 aaabb

#64
r134 aaaaa
r422 aaaab
r0 aaaao
r0 aaaap
r0 aaabc
r0 aaabd

#66
r123 aaaaq
r29 aaaar
r34 aaaas
r34 aaaat
r-23 aaaau
r85 aaaav
r12 aaaaw
r206 aaaax
r45 aaaay
r336 aaaaz
r593 aaabb
r67 aaabc
r823 aaabd
r0 aaabe
r0 aaabf

#68
r0 aaaaq
r0 aaaar
r134 aaabe
r422 aaabf

#70
r0 aaaaa
r0 aaaab
r0 aaaas
r0 aaaat

#72
r0 aaaau
r0 aaaav

#74
r0 aaaaw
r0 aaaax

#76
r0 aaaay
r0 aaaaz

#78
r0 aaabb

#80
r0 aaabc
r0 aaabd

#82
r0 aaabe
r0 aaabf

