CABA/trace.vcd
$date
     Apr 03, 2020       11:57:04
$end

$version
 SystemC 2.3.3-Accellera --- Mar 27 2020 17:30:03
$end

$timescale
     1 ns
$end

$scope module SystemC $end
$var wire    1  aaaaa  clk       $end
$var wire    1  aaaab  data_valid_input       $end
$var wire    1  aaaac  s_data_valid_output       $end
$var wire    1  aaaad  data_req_input       $end
$var wire    1  aaaae  data_req_output       $end
$upscope $end
$enddefinitions  $end

$comment
All initial values are dumped below at time 0 sec = 0 timescale units.
$end

$dumpvars
0aaaaa
0aaaab
0aaaac
0aaaad
0aaaae
$end

#10
1aaaaa
1aaaab
1aaaad
1aaaae

#15
0aaaaa

#20
1aaaaa
0aaaab
0aaaad

#25
0aaaaa

#30
1aaaaa
1aaaab
1aaaad

#35
0aaaaa

#40
1aaaaa
0aaaab
0aaaad

#45
0aaaaa

#50
1aaaaa
1aaaab
1aaaad

#55
0aaaaa

#60
1aaaaa
0aaaab
0aaaad

#65
0aaaaa

#70
1aaaaa
1aaaab
1aaaad

#75
0aaaaa

#80
1aaaaa
0aaaab
0aaaad

#85
0aaaaa

#90
1aaaaa
1aaaab
1aaaad

#95
0aaaaa

#100
1aaaaa
0aaaab
0aaaad

#105
0aaaaa

#110
1aaaaa
1aaaab
1aaaad

#115
0aaaaa

#120
1aaaaa
0aaaab
0aaaad

#125
0aaaaa

#130
1aaaaa
1aaaab
1aaaad

#135
0aaaaa

#140
1aaaaa
0aaaab
0aaaad

#145
0aaaaa

#150
1aaaaa
1aaaab
1aaaad

#155
0aaaaa

#160
1aaaaa
0aaaab
1aaaac
0aaaad

#165
0aaaaa

#170
1aaaaa
1aaaab
0aaaac
0aaaae

#175
0aaaaa

#180
1aaaaa
1aaaac
1aaaae

#185
0aaaaa

#190
1aaaaa
0aaaac
0aaaae

#195
0aaaaa

#200
1aaaaa
1aaaac
1aaaae

#205
0aaaaa

#210
1aaaaa
0aaaac
0aaaae

#215
0aaaaa

#220
1aaaaa
1aaaac
1aaaae

#225
0aaaaa

#230
1aaaaa
0aaaac
0aaaae

#235
0aaaaa

#240
1aaaaa
1aaaac
1aaaae

#245
0aaaaa

#250
1aaaaa
0aaaac
0aaaae

#255
0aaaaa

#260
1aaaaa
1aaaac
1aaaae

#265
0aaaaa

#270
1aaaaa
0aaaac
0aaaae

#275
0aaaaa

#280
1aaaaa
1aaaac
1aaaae

#285
0aaaaa

#290
1aaaaa
0aaaac
0aaaae

#295
0aaaaa

#300
1aaaaa
1aaaac
1aaaae

#305
0aaaaa

#310
1aaaaa
0aaaac
0aaaae

#315
0aaaaa

#320
1aaaaa
1aaaad
1aaaae

#325
0aaaaa

#330
1aaaaa
0aaaab
0aaaad

#335
0aaaaa

#340
1aaaaa
1aaaab
1aaaad

#345
0aaaaa

#350
1aaaaa
0aaaab
0aaaad

#355
0aaaaa

#360
1aaaaa
1aaaab
1aaaad

#365
0aaaaa

#370
1aaaaa
0aaaab
0aaaad

#375
0aaaaa

#380
1aaaaa
1aaaab
1aaaad

#385
0aaaaa

#390
1aaaaa
0aaaab
0aaaad

#395
0aaaaa

#400
1aaaaa
1aaaab
1aaaad

#405
0aaaaa

#410
1aaaaa
0aaaab
0aaaad

#415
0aaaaa

#420
1aaaaa
1aaaab
1aaaad

#425
0aaaaa

#430
1aaaaa
0aaaab
0aaaad

#435
0aaaaa

#440
1aaaaa
1aaaab
1aaaad

#445
0aaaaa

#450
1aaaaa
0aaaab
0aaaad

#455
0aaaaa

#460
1aaaaa
1aaaab
1aaaad

#465
0aaaaa

#470
1aaaaa
0aaaab
1aaaac
0aaaad

#475
0aaaaa

#480
1aaaaa
1aaaab
0aaaac
0aaaae

#485
0aaaaa

#490
1aaaaa
1aaaac
1aaaae

#495
0aaaaa

#500
1aaaaa
0aaaac
0aaaae

#505
0aaaaa

#510
1aaaaa
1aaaac
1aaaae

#515
0aaaaa

#520
1aaaaa
0aaaac
0aaaae

#525
0aaaaa

#530
1aaaaa
1aaaac
1aaaae

#535
0aaaaa

#540
1aaaaa
0aaaac
0aaaae

#545
0aaaaa

#550
1aaaaa
1aaaac
1aaaae

#555
0aaaaa

#560
1aaaaa
0aaaac
0aaaae

#565
0aaaaa

#570
1aaaaa
1aaaac
1aaaae

#575
0aaaaa

#580
1aaaaa
0aaaac
0aaaae

#585
0aaaaa

#590
1aaaaa
1aaaac
1aaaae

#595
0aaaaa

#600
1aaaaa
0aaaac
0aaaae

#605
0aaaaa

#610
1aaaaa
1aaaac
1aaaae

#615
0aaaaa

#620
1aaaaa
0aaaac
0aaaae

#625
0aaaaa

#630
1aaaaa
1aaaad
1aaaae

#635
0aaaaa

#640
1aaaaa
0aaaab
0aaaad

#645
0aaaaa

#650
1aaaaa
1aaaab
1aaaad

#655
0aaaaa

#660
1aaaaa
0aaaab
0aaaad

#665
0aaaaa

#670
1aaaaa
1aaaab
1aaaad

#675
0aaaaa

#680
1aaaaa
0aaaab
0aaaad

#685
0aaaaa

#690
1aaaaa
1aaaab
1aaaad

#695
0aaaaa

#700
1aaaaa
0aaaab
0aaaad

#705
0aaaaa

#710
1aaaaa
1aaaab
1aaaad

#715
0aaaaa

#720
1aaaaa
0aaaab
0aaaad

#725
0aaaaa

#730
1aaaaa
1aaaab
1aaaad

#735
0aaaaa

#740
1aaaaa
0aaaab
0aaaad

#745
0aaaaa

#750
1aaaaa
1aaaab
1aaaad

#755
0aaaaa

#760
1aaaaa
0aaaab
0aaaad

#765
0aaaaa

#770
1aaaaa
1aaaab
1aaaad

#775
0aaaaa

#780
1aaaaa
0aaaab
1aaaac
0aaaad

#785
0aaaaa

#790
1aaaaa
1aaaab
0aaaac
0aaaae

#795
0aaaaa

#800
1aaaaa
1aaaac
1aaaae

#805
0aaaaa

#810
1aaaaa
0aaaac
0aaaae

#815
0aaaaa

#820
1aaaaa
1aaaac
1aaaae

#825
0aaaaa

#830
1aaaaa
0aaaac
0aaaae

#835
0aaaaa

#840
1aaaaa
1aaaac
1aaaae

#845
0aaaaa

#850
1aaaaa
0aaaac
0aaaae

#855
0aaaaa

#860
1aaaaa
1aaaac
1aaaae

#865
0aaaaa

#870
1aaaaa
0aaaac
0aaaae

#875
0aaaaa

#880
1aaaaa
1aaaac
1aaaae

#885
0aaaaa

#890
1aaaaa
0aaaac
0aaaae

#895
0aaaaa

#900
1aaaaa
1aaaac
1aaaae

#905
0aaaaa

#910
1aaaaa
0aaaac
0aaaae

#915
0aaaaa

#920
1aaaaa
1aaaac
1aaaae

#925
0aaaaa

#930
1aaaaa
0aaaac
0aaaae

#935
0aaaaa

#940
1aaaaa
1aaaad
1aaaae

#945
0aaaaa

#950
1aaaaa
0aaaab
0aaaad

#955
0aaaaa

#960
1aaaaa
1aaaab
1aaaad

#965
0aaaaa

#970
1aaaaa
0aaaab
0aaaad

#975
0aaaaa

#980
1aaaaa
1aaaab
1aaaad

#985
0aaaaa

#990
1aaaaa
0aaaab
0aaaad

#995
0aaaaa

#1000
1aaaaa
1aaaab
1aaaad

#1005
0aaaaa

#1010
1aaaaa
0aaaab
0aaaad

#1015
0aaaaa

#1020
1aaaaa
1aaaab
1aaaad

#1025
0aaaaa

#1030
1aaaaa
0aaaab
0aaaad

#1035
0aaaaa

#1040
1aaaaa
1aaaab
1aaaad

#1045
0aaaaa

#1050
1aaaaa
0aaaab
0aaaad

#1055
0aaaaa

#1060
1aaaaa
1aaaab
1aaaad

#1065
0aaaaa

#1070
1aaaaa
0aaaab
0aaaad

#1075
0aaaaa

#1080
1aaaaa
1aaaab
1aaaad

#1085
0aaaaa

#1090
1aaaaa
0aaaab
1aaaac
0aaaad

#1095
0aaaaa

#1100
1aaaaa
0aaaac
0aaaae

#1105
0aaaaa

#1110
1aaaaa
1aaaac
1aaaae

#1115
0aaaaa

#1120
1aaaaa
0aaaac
0aaaae

#1125
0aaaaa

#1130
1aaaaa
1aaaac
1aaaae

#1135
0aaaaa

#1140
1aaaaa
0aaaac
0aaaae

#1145
0aaaaa

#1150
1aaaaa
1aaaac
1aaaae

#1155
0aaaaa

#1160
1aaaaa
0aaaac
0aaaae

#1165
0aaaaa

#1170
1aaaaa
1aaaac
1aaaae

#1175
0aaaaa

#1180
1aaaaa
0aaaac
0aaaae

#1185
0aaaaa

#1190
1aaaaa
1aaaac
1aaaae

#1195
0aaaaa

#1200
1aaaaa
0aaaac
0aaaae

#1205
0aaaaa

#1210
1aaaaa
1aaaac
1aaaae

#1215
0aaaaa

#1220
1aaaaa
0aaaac
0aaaae

#1225
0aaaaa

#1230
1aaaaa
1aaaac
1aaaae

#1235
0aaaaa

#1240
1aaaaa
0aaaac
0aaaae

#1245
0aaaaa

#1250
1aaaaa
1aaaad
1aaaae

